\relax 
\providecommand\hyper@newdestlabel[2]{}
\catcode `"\active 
\providecommand\HyperFirstAtBeginDocument{\AtBeginDocument}
\HyperFirstAtBeginDocument{\ifx\hyper@anchor\@undefined
\global\let\oldcontentsline\contentsline
\gdef\contentsline#1#2#3#4{\oldcontentsline{#1}{#2}{#3}}
\global\let\oldnewlabel\newlabel
\gdef\newlabel#1#2{\newlabelxx{#1}#2}
\gdef\newlabelxx#1#2#3#4#5#6{\oldnewlabel{#1}{{#2}{#3}}}
\AtEndDocument{\ifx\hyper@anchor\@undefined
\let\contentsline\oldcontentsline
\let\newlabel\oldnewlabel
\fi}
\fi}
\global\let\hyper@last\relax 
\gdef\HyperFirstAtBeginDocument#1{#1}
\providecommand\HyField@AuxAddToFields[1]{}
\providecommand\HyField@AuxAddToCoFields[2]{}
\citation{abnt-url-package=hyperref}
\citation{abnt-emphasize=bf}
\citation{abnt-etal-cite=2}
\citation{abnt-etal-list=0}
\citation{abnt-repeated-title-omit=yes}
\citation{abnt-show-options=warn}
\citation{abnt-verbatim-entry=no}
\citation{abnt-url-package=url}
\select@language{brazilian}
\@writefile{toc}{\select@language{brazilian}}
\@writefile{lof}{\select@language{brazilian}}
\@writefile{lot}{\select@language{brazilian}}
\@input{./docs/epigrafe.aux}
\@input{./docs/dedicatoria.aux}
\@input{./docs/agradecimentos.aux}
\@input{./docs/resumo.aux}
\@input{./docs/abstract.aux}
\@writefile{toc}{\thispagestyle {empty}}
\@writefile{toc}{\cftpagenumbersoff  {chapter}}
\@writefile{toc}{\contentsline {chapter}{LISTA DE FIGURAS}{17}{section.0.1}}
\@writefile{toc}{\cftpagenumberson  {chapter}}
\@writefile{lof}{\thispagestyle {empty}}
\@writefile{toc}{\cftpagenumbersoff  {chapter}}
\@writefile{toc}{\contentsline {chapter}{LISTA DE TABELAS}{19}{section.0.2}}
\@writefile{toc}{\cftpagenumberson  {chapter}}
\@writefile{lot}{\thispagestyle {empty}}
\@input{./docs/simbolos.aux}
\@input{./docs/abreviaturasesiglas.aux}
\@input{./docs/INTROT.aux}
\@input{./docs/CAP2T.aux}
\@input{./docs/CAP3T.aux}
\@input{./docs/CAP4T.aux}
\@input{./docs/CAP5T.aux}
\@input{./docs/CAP6T.aux}
\@writefile{toc}{\renewcommand {\chaptername }{\appendixname }}
\@input{./docs/apendice.aux}
\bibstyle{abnt-alf}
\bibdata{abnt-options,./bib/publicacao}
\bibcite{dellamico_michiardi_roudier_2010}{Amico et al. 2010}
\bibciteEXPL{dellamico_michiardi_roudier_2010}{Amico et al.}
\bibciteIMPL{dellamico_michiardi_roudier_2010}{AMICO et al.}
\bibciteYEAR{dellamico_michiardi_roudier_2010}{2010}
\bibcite{hashcat_2016}{Binnie 2016}
\bibciteEXPL{hashcat_2016}{Binnie}
\bibciteIMPL{hashcat_2016}{BINNIE}
\bibciteYEAR{hashcat_2016}{2016}
\bibcite{bishop_klein_1995}{Bishop e Klein 1995}
\bibciteEXPL{bishop_klein_1995}{Bishop e Klein}
\bibciteIMPL{bishop_klein_1995}{BISHOP; KLEIN}
\bibciteYEAR{bishop_klein_1995}{1995}
\bibcite{burr2}{Burr et al. 2013}
\bibciteEXPL{burr2}{Burr et al.}
\bibciteIMPL{burr2}{BURR et al.}
\bibciteYEAR{burr2}{2013}
\bibcite{burr}{Burr et al. 2004}
\bibciteEXPL{burr}{Burr et al.}
\bibciteIMPL{burr}{BURR et al.}
\bibciteYEAR{burr}{2004}
\bibcite{casella_berger_2010}{Casella e Berger 2010}
\bibciteEXPL{casella_berger_2010}{Casella e Berger}
\bibciteIMPL{casella_berger_2010}{CASELLA; BERGER}
\bibciteYEAR{casella_berger_2010}{2010}
\bibcite{castellucia}{Castelluccia et al. 2016}
\bibciteEXPL{castellucia}{Castelluccia et al.}
\bibciteIMPL{castellucia}{CASTELLUCCIA et al.}
\bibciteYEAR{castellucia}{2016}
\bibcite{chang_keisler_2012}{Chang e Keisler 2012}
\bibciteEXPL{chang_keisler_2012}{Chang e Keisler}
\bibciteIMPL{chang_keisler_2012}{CHANG; KEISLER}
\bibciteYEAR{chang_keisler_2012}{2012}
\bibcite{cisar_cisar_2007}{Cisar e Cisar 2007}
\bibciteEXPL{cisar_cisar_2007}{Cisar e Cisar}
\bibciteIMPL{cisar_cisar_2007}{CISAR; CISAR}
\bibciteYEAR{cisar_cisar_2007}{2007}
\bibcite{conger_lynley_2017}{Conger e Lynley 2017}
\bibciteEXPL{conger_lynley_2017}{Conger e Lynley}
\bibciteIMPL{conger_lynley_2017}{CONGER; LYNLEY}
\bibciteYEAR{conger_lynley_2017}{2017}
\bibcite{techcrunch}{Cubrilovic 2009}
\bibciteEXPL{techcrunch}{Cubrilovic}
\bibciteIMPL{techcrunch}{CUBRILOVIC}
\bibciteYEAR{techcrunch}{2009}
\bibcite{dang_2013}{Dang 2013}
\bibciteEXPL{dang_2013}{Dang}
\bibciteIMPL{dang_2013}{DANG}
\bibciteYEAR{dang_2013}{2013}
\bibcite{donovan_kernighan_2015}{Donovan e Kernighan 2015}
\bibciteEXPL{donovan_kernighan_2015}{Donovan e Kernighan}
\bibciteIMPL{donovan_kernighan_2015}{DONOVAN; KERNIGHAN}
\bibciteYEAR{donovan_kernighan_2015}{2015}
\bibcite{ferguson_schneier_kohno_2010}{Ferguson et al. 2010}
\bibciteEXPL{ferguson_schneier_kohno_2010}{Ferguson et al.}
\bibciteIMPL{ferguson_schneier_kohno_2010}{FERGUSON et al.}
\bibciteYEAR{ferguson_schneier_kohno_2010}{2010}
\@writefile{toc}{\contentsline {chapter}{REFER\^ENCIAS BIBLIOGR\'AFICAS}{125}{appendix.H}}
\newlabel{referbiblio}{{H}{125}{\refname }{appendix.H}{}}
\bibcite{florencio_herley_2007}{Florencio e Herley 2007}
\bibciteEXPL{florencio_herley_2007}{Florencio e Herley}
\bibciteIMPL{florencio_herley_2007}{FLORENCIO; HERLEY}
\bibciteYEAR{florencio_herley_2007}{2007}
\bibcite{motherboard}{Franceschi-Bicchierai 2016}
\bibciteEXPL{motherboard}{Franceschi-Bicchierai}
\bibciteIMPL{motherboard}{FRANCESCHI-BICCHIERAI}
\bibciteYEAR{motherboard}{2016}
\bibcite{gaw_felten_2006}{Gaw e Felten 2006}
\bibciteEXPL{gaw_felten_2006}{Gaw e Felten}
\bibciteIMPL{gaw_felten_2006}{GAW; FELTEN}
\bibciteYEAR{gaw_felten_2006}{2006}
\bibcite{glabb2007}{Glabb et al. 2007}
\bibciteEXPL{glabb2007}{Glabb et al.}
\bibciteIMPL{glabb2007}{GLABB et al.}
\bibciteYEAR{glabb2007}{2007}
\bibcite{gosney_2016}{Gosney 2016}
\bibciteEXPL{gosney_2016}{Gosney}
\bibciteIMPL{gosney_2016}{GOSNEY}
\bibciteYEAR{gosney_2016}{2016}
\bibcite{halmos_2017}{HALMOS 2017}
\bibciteEXPL{halmos_2017}{HALMOS}
\bibciteIMPL{halmos_2017}{HALMOS}
\bibciteYEAR{halmos_2017}{2017}
\bibcite{troyhunt}{Hunt 2017}
\bibciteEXPL{troyhunt}{Hunt}
\bibciteIMPL{troyhunt}{HUNT}
\bibciteYEAR{troyhunt}{2017}
\bibcite{hutchens_2014}{Hutchens 2014}
\bibciteEXPL{hutchens_2014}{Hutchens}
\bibciteIMPL{hutchens_2014}{HUTCHENS}
\bibciteYEAR{hutchens_2014}{2014}
\bibcite{jayamaha_2008}{Jayamaha et al. 2008}
\bibciteEXPL{jayamaha_2008}{Jayamaha et al.}
\bibciteIMPL{jayamaha_2008}{JAYAMAHA et al.}
\bibciteYEAR{jayamaha_2008}{2008}
\bibcite{kelley2}{Kelley et al. 2011}
\bibciteEXPL{kelley2}{Kelley et al.}
\bibciteIMPL{kelley2}{KELLEY et al.}
\bibciteYEAR{kelley2}{2011}
\bibcite{information_theory_2004}{MacKay 2004}
\bibciteEXPL{information_theory_2004}{MacKay}
\bibciteIMPL{information_theory_2004}{MACKAY}
\bibciteYEAR{information_theory_2004}{2004}
\bibcite{menezes_2001}{Menezes et al. 2001}
\bibciteEXPL{menezes_2001}{Menezes et al.}
\bibciteIMPL{menezes_2001}{MENEZES et al.}
\bibciteYEAR{menezes_2001}{2001}
\bibcite{munshi_2009}{Munshi 2009}
\bibciteEXPL{munshi_2009}{Munshi}
\bibciteIMPL{munshi_2009}{MUNSHI}
\bibciteYEAR{munshi_2009}{2009}
\bibcite{murakami_kasahara_saito_2010}{Murakami et al. 2010}
\bibciteEXPL{murakami_kasahara_saito_2010}{Murakami et al.}
\bibciteIMPL{murakami_kasahara_saito_2010}{MURAKAMI et al.}
\bibciteYEAR{murakami_kasahara_saito_2010}{2010}
\bibcite{mashable}{Murphy 2012}
\bibciteEXPL{mashable}{Murphy}
\bibciteIMPL{mashable}{MURPHY}
\bibciteYEAR{mashable}{2012}
\bibcite{ornbo_2018}{Ornbo 2018}
\bibciteEXPL{ornbo_2018}{Ornbo}
\bibciteIMPL{ornbo_2018}{ORNBO}
\bibciteYEAR{ornbo_2018}{2018}
\bibcite{patterson_2008}{Patterson 2008}
\bibciteEXPL{patterson_2008}{Patterson}
\bibciteIMPL{patterson_2008}{PATTERSON}
\bibciteYEAR{patterson_2008}{2008}
\bibcite{informatics_1986}{Pearl 1986}
\bibciteEXPL{informatics_1986}{Pearl}
\bibciteIMPL{informatics_1986}{PEARL}
\bibciteYEAR{informatics_1986}{1986}
\bibcite{hashcrack}{Picolet 2017}
\bibciteEXPL{hashcrack}{Picolet}
\bibciteIMPL{hashcrack}{PICOLET}
\bibciteYEAR{hashcrack}{2017}
\bibcite{rodrigues}{Rodrigues et al. 2017}
\bibciteEXPL{rodrigues}{Rodrigues et al.}
\bibciteIMPL{rodrigues}{RODRIGUES et al.}
\bibciteYEAR{rodrigues}{2017}
\bibcite{rosen_2007}{Rosen 2007}
\bibciteEXPL{rosen_2007}{Rosen}
\bibciteIMPL{rosen_2007}{ROSEN}
\bibciteYEAR{rosen_2007}{2007}
\bibcite{sahin}{Sahin et al. 2015}
\bibciteEXPL{sahin}{Sahin et al.}
\bibciteIMPL{sahin}{SAHIN et al.}
\bibciteYEAR{sahin}{2015}
\bibcite{sanadhya_sarkar}{Sanadhya e Sarkar 2007}
\bibciteEXPL{sanadhya_sarkar}{Sanadhya e Sarkar}
\bibciteIMPL{sanadhya_sarkar}{SANADHYA; SARKAR}
\bibciteYEAR{sanadhya_sarkar}{2007}
\bibcite{shannon_2009}{Shannon 2009}
\bibciteEXPL{shannon_2009}{Shannon}
\bibciteIMPL{shannon_2009}{SHANNON}
\bibciteYEAR{shannon_2009}{2009}
\bibcite{kelley1}{Shay et al. 2010}
\bibciteEXPL{kelley1}{Shay et al.}
\bibciteIMPL{kelley1}{SHAY et al.}
\bibciteYEAR{kelley1}{2010}
\bibcite{shen_khanna_1997}{Shen e Khanna 1997}
\bibciteEXPL{shen_khanna_1997}{Shen e Khanna}
\bibciteIMPL{shen_khanna_1997}{SHEN; KHANNA}
\bibciteYEAR{shen_khanna_1997}{1997}
\bibcite{singh_yamini_2013}{Singh e Yamini 2013}
\bibciteEXPL{singh_yamini_2013}{Singh e Yamini}
\bibciteIMPL{singh_yamini_2013}{SINGH; YAMINI}
\bibciteYEAR{singh_yamini_2013}{2013}
\bibcite{stallings_2017}{Stallings 2017}
\bibciteEXPL{stallings_2017}{Stallings}
\bibciteIMPL{stallings_2017}{STALLINGS}
\bibciteYEAR{stallings_2017}{2017}
\bibcite{swiderski_snyder_2009}{Swiderski e Snyder 2009}
\bibciteEXPL{swiderski_snyder_2009}{Swiderski e Snyder}
\bibciteIMPL{swiderski_snyder_2009}{SWIDERSKI; SNYDER}
\bibciteYEAR{swiderski_snyder_2009}{2009}
\bibcite{wang_2016}{Wang et al. 2016}
\bibciteEXPL{wang_2016}{Wang et al.}
\bibciteIMPL{wang_2016}{WANG et al.}
\bibciteYEAR{wang_2016}{2016}
\bibcite{wang2005collision}{Wang et al. 2005}
\bibciteEXPL{wang2005collision}{Wang et al.}
\bibciteIMPL{wang2005collision}{WANG et al.}
\bibciteYEAR{wang2005collision}{2005}
\bibcite{weir_2009}{Weir et al. 2009}
\bibciteEXPL{weir_2009}{Weir et al.}
\bibciteIMPL{weir_2009}{WEIR et al.}
\bibciteYEAR{weir_2009}{2009}
\bibcite{wheeler2016zxcvbn}{Wheeler 2016}
\bibciteEXPL{wheeler2016zxcvbn}{Wheeler}
\bibciteIMPL{wheeler2016zxcvbn}{WHEELER}
\bibciteYEAR{wheeler2016zxcvbn}{2016}
\bibcite{zhang_koushanfar_2016}{Zhang e Koushanfar 2016}
\bibciteEXPL{zhang_koushanfar_2016}{Zhang e Koushanfar}
\bibciteIMPL{zhang_koushanfar_2016}{ZHANG; KOUSHANFAR}
\bibciteYEAR{zhang_koushanfar_2016}{2016}
\@input{./docs/glossario.aux}
\ttl@finishall
\newlabel{LastPage}{{}{130}{}{page.130}{}}
\gdef\minted@oldcachelist{,
  default.pygstyle,
  default-pyg-prefix.pygstyle,
  4E9B00810BABCA55F7C0BABAFC2556B7840F827243A0C92C4C2C40DE9D70912E.pygtex,
  EB8E5949092340A107A327F90BDB4DB3840F827243A0C92C4C2C40DE9D70912E.pygtex,
  58CA95C5B364C5229A72C650AD459C32840F827243A0C92C4C2C40DE9D70912E.pygtex,
  58CA95C5B364C5229A72C650AD459C32840F827243A0C92C4C2C40DE9D70912E.pygtex,
  EB8E5949092340A107A327F90BDB4DB3840F827243A0C92C4C2C40DE9D70912E.pygtex,
  963B0C9457372290D645301697C75197840F827243A0C92C4C2C40DE9D70912E.pygtex,
  D9D541612933475AFD2616575D6EEEC8840F827243A0C92C4C2C40DE9D70912E.pygtex,
  622B490CEE7D1C7EFAAF4B741FD59624840F827243A0C92C4C2C40DE9D70912E.pygtex,
  2EF35605BA2297D50564043DC09CB621840F827243A0C92C4C2C40DE9D70912E.pygtex,
  B75A093C8D2818F0BE1C03CF67996244840F827243A0C92C4C2C40DE9D70912E.pygtex,
  C48EADCE5D89818597FA6C46DE571394840F827243A0C92C4C2C40DE9D70912E.pygtex,
  64E641DB4D0D86835AC446156B2F8EB9840F827243A0C92C4C2C40DE9D70912E.pygtex,
  622B490CEE7D1C7EFAAF4B741FD59624840F827243A0C92C4C2C40DE9D70912E.pygtex,
  4451DE91410C5BA9FB320A31C7AC888F840F827243A0C92C4C2C40DE9D70912E.pygtex,
  A2E10760E7E6320E8198E82DC0AA9050840F827243A0C92C4C2C40DE9D70912E.pygtex,
  391A56D8F3590D33A85F35CDE1FA3D7D840F827243A0C92C4C2C40DE9D70912E.pygtex,
  81792EFE7309CDBE4AC98DDFF64AE692840F827243A0C92C4C2C40DE9D70912E.pygtex,
  37D237C1AF3700676993B053A1403DB8840F827243A0C92C4C2C40DE9D70912E.pygtex,
  763F8D7BD8761A630629051CD3F82C3D840F827243A0C92C4C2C40DE9D70912E.pygtex,
  7A9288BA0629F6CDC76697866E99DF7A840F827243A0C92C4C2C40DE9D70912E.pygtex,
  C041D4BCA13A70B3C234139E5EAFC199840F827243A0C92C4C2C40DE9D70912E.pygtex,
  E7891E82F78AD116D8B4108CB0FD4F64840F827243A0C92C4C2C40DE9D70912E.pygtex,
  F030BDAF8A3F849E70E3A24F7CF75B31840F827243A0C92C4C2C40DE9D70912E.pygtex,
  143E7AA8CD5A1F11BC1137D8FE49BCDF840F827243A0C92C4C2C40DE9D70912E.pygtex,
  A1669CE7D333A23BDA6BCEE2294B5CF6840F827243A0C92C4C2C40DE9D70912E.pygtex,
  5DDF3D44909F622EACA3A33C8BF973D7840F827243A0C92C4C2C40DE9D70912E.pygtex,
  C746792827CADB114165C080A7FF906C840F827243A0C92C4C2C40DE9D70912E.pygtex,
  C746792827CADB114165C080A7FF906C840F827243A0C92C4C2C40DE9D70912E.pygtex,
  C746792827CADB114165C080A7FF906C840F827243A0C92C4C2C40DE9D70912E.pygtex,
  5DDF3D44909F622EACA3A33C8BF973D7840F827243A0C92C4C2C40DE9D70912E.pygtex,
  C746792827CADB114165C080A7FF906C840F827243A0C92C4C2C40DE9D70912E.pygtex,
  C746792827CADB114165C080A7FF906C840F827243A0C92C4C2C40DE9D70912E.pygtex,
  D2C8319822B1C83ECE682460DD246241840F827243A0C92C4C2C40DE9D70912E.pygtex,
  96922CDA733ED8DFB320B2A5AFCA949E840F827243A0C92C4C2C40DE9D70912E.pygtex,
  9804048DB7E16D9C9692CC6F380A09BD840F827243A0C92C4C2C40DE9D70912E.pygtex,
  B89179546130A6DCA9FA731FB772AF39840F827243A0C92C4C2C40DE9D70912E.pygtex,
  7B7F1553656E423D5B1C40497FE13164840F827243A0C92C4C2C40DE9D70912E.pygtex,
  877DD7166BC8B54BD7A486C5EADBFA07840F827243A0C92C4C2C40DE9D70912E.pygtex,
  ED7EF8130E72D06D20FF949ACB2FD224840F827243A0C92C4C2C40DE9D70912E.pygtex,
  A40030B9330E2E48FA691CE7C1693FCD840F827243A0C92C4C2C40DE9D70912E.pygtex,
  AA7B498A0E72DFD5A930C1EF3B11CA51840F827243A0C92C4C2C40DE9D70912E.pygtex,
  C9D368371CED507EBE63BD9A39403366840F827243A0C92C4C2C40DE9D70912E.pygtex,
  4BDF5A2CB8AE1F73D039F215CD565701840F827243A0C92C4C2C40DE9D70912E.pygtex,
  BF26A7A718DB16501B2A257E50AB34A9840F827243A0C92C4C2C40DE9D70912E.pygtex,
  C16B68AFCC999D384CA26BD41D3245F5840F827243A0C92C4C2C40DE9D70912E.pygtex,
  FA97E2A0575FED623E49CD2C61A3170B840F827243A0C92C4C2C40DE9D70912E.pygtex,
  9931549032FBD75F58F006ED3AA66E07840F827243A0C92C4C2C40DE9D70912E.pygtex,
  1885EC233380D4129734DA880911280B840F827243A0C92C4C2C40DE9D70912E.pygtex,
  4451DE91410C5BA9FB320A31C7AC888F840F827243A0C92C4C2C40DE9D70912E.pygtex,
  7CD094FD9D58FB484E6AFAB3B9252FAC840F827243A0C92C4C2C40DE9D70912E.pygtex,
  5B4F7F965893EDF46BFC87473C862A33840F827243A0C92C4C2C40DE9D70912E.pygtex,
  F04BAF52F2A158B08F5B5C4061C360D8840F827243A0C92C4C2C40DE9D70912E.pygtex,
  5D8C1E8BEF02F460C34FDE8BAF210DE0840F827243A0C92C4C2C40DE9D70912E.pygtex,
  CCD75966D46D49C6271B5AE2D71913BE840F827243A0C92C4C2C40DE9D70912E.pygtex,
  EC9187A89C2F150E910B6DB5F37521B9840F827243A0C92C4C2C40DE9D70912E.pygtex,
  BA01C9DBCC274266FC09DE96DBB8250B840F827243A0C92C4C2C40DE9D70912E.pygtex,
  EC9187A89C2F150E910B6DB5F37521B9840F827243A0C92C4C2C40DE9D70912E.pygtex,
  BA01C9DBCC274266FC09DE96DBB8250B840F827243A0C92C4C2C40DE9D70912E.pygtex,
  1F297BC25B353B4477D888223D62F002840F827243A0C92C4C2C40DE9D70912E.pygtex,
  547F873986F630DD4D5357B54C639945840F827243A0C92C4C2C40DE9D70912E.pygtex,
  A5B1E83CD0273AEFDF9CCA2994B97C77840F827243A0C92C4C2C40DE9D70912E.pygtex,
  36ED50C2A02623B17B02F1BABCEEDF0B840F827243A0C92C4C2C40DE9D70912E.pygtex,
  1F297BC25B353B4477D888223D62F002840F827243A0C92C4C2C40DE9D70912E.pygtex,
  36ED50C2A02623B17B02F1BABCEEDF0B840F827243A0C92C4C2C40DE9D70912E.pygtex,
  FB7792B6596FD12502DD132C0ABA0568840F827243A0C92C4C2C40DE9D70912E.pygtex,
  A5B1E83CD0273AEFDF9CCA2994B97C77840F827243A0C92C4C2C40DE9D70912E.pygtex,
  3520FB712DF10708C4F7347B770EE66D840F827243A0C92C4C2C40DE9D70912E.pygtex,
  A5B1E83CD0273AEFDF9CCA2994B97C77840F827243A0C92C4C2C40DE9D70912E.pygtex,
  F7320CB2DE8EF4531DD9C33C17E56FB9840F827243A0C92C4C2C40DE9D70912E.pygtex,
  3367B86F441DFB7E77CFD22F418EFD8A840F827243A0C92C4C2C40DE9D70912E.pygtex,
  E2F300D735E4101787E73943AF7C32A7840F827243A0C92C4C2C40DE9D70912E.pygtex,
  36ED50C2A02623B17B02F1BABCEEDF0B840F827243A0C92C4C2C40DE9D70912E.pygtex,
  F4B5E5BD04C3753C25BD70ECEFF02D8E840F827243A0C92C4C2C40DE9D70912E.pygtex,
  E2F300D735E4101787E73943AF7C32A7840F827243A0C92C4C2C40DE9D70912E.pygtex,
  539B32AA4244642AB62680B18CBA3FD1840F827243A0C92C4C2C40DE9D70912E.pygtex,
  5DA298BE06F2C1704ADA161CCE21E24C840F827243A0C92C4C2C40DE9D70912E.pygtex,
  1F297BC25B353B4477D888223D62F002840F827243A0C92C4C2C40DE9D70912E.pygtex,
  B48511EE052924A54418C274B91CF3E9840F827243A0C92C4C2C40DE9D70912E.pygtex,
  D99F8D26D914F023CCF205E67EFE8D13840F827243A0C92C4C2C40DE9D70912E.pygtex,
  E2F300D735E4101787E73943AF7C32A7840F827243A0C92C4C2C40DE9D70912E.pygtex,
  B48511EE052924A54418C274B91CF3E9840F827243A0C92C4C2C40DE9D70912E.pygtex,
  D99F8D26D914F023CCF205E67EFE8D13840F827243A0C92C4C2C40DE9D70912E.pygtex,
  1F297BC25B353B4477D888223D62F002840F827243A0C92C4C2C40DE9D70912E.pygtex,
  D99F8D26D914F023CCF205E67EFE8D13840F827243A0C92C4C2C40DE9D70912E.pygtex,
  1F297BC25B353B4477D888223D62F002840F827243A0C92C4C2C40DE9D70912E.pygtex,
  A506185D7FDC2E0C73E7344B0095E5DC840F827243A0C92C4C2C40DE9D70912E.pygtex,
  B48511EE052924A54418C274B91CF3E9840F827243A0C92C4C2C40DE9D70912E.pygtex,
  13D99420E4C644688E648654B2448DF6840F827243A0C92C4C2C40DE9D70912E.pygtex,
  F46CC4D2A88FFB140997D3D7C5A415D7840F827243A0C92C4C2C40DE9D70912E.pygtex,
  4BDF5A2CB8AE1F73D039F215CD565701840F827243A0C92C4C2C40DE9D70912E.pygtex,
  C16B68AFCC999D384CA26BD41D3245F5840F827243A0C92C4C2C40DE9D70912E.pygtex,
  129FF6856C7BB6B3D407DD167C872CBD840F827243A0C92C4C2C40DE9D70912E.pygtex,
  F04BAF52F2A158B08F5B5C4061C360D8840F827243A0C92C4C2C40DE9D70912E.pygtex,
  CCD75966D46D49C6271B5AE2D71913BE840F827243A0C92C4C2C40DE9D70912E.pygtex,
  EC9187A89C2F150E910B6DB5F37521B9840F827243A0C92C4C2C40DE9D70912E.pygtex,
  BA01C9DBCC274266FC09DE96DBB8250B840F827243A0C92C4C2C40DE9D70912E.pygtex,
  48C9A5E03DC55190984A51EDF2AC639A840F827243A0C92C4C2C40DE9D70912E.pygtex,
  EC9187A89C2F150E910B6DB5F37521B9840F827243A0C92C4C2C40DE9D70912E.pygtex,
  A5B1E83CD0273AEFDF9CCA2994B97C77840F827243A0C92C4C2C40DE9D70912E.pygtex,
  A5B1E83CD0273AEFDF9CCA2994B97C77840F827243A0C92C4C2C40DE9D70912E.pygtex,
  36ED50C2A02623B17B02F1BABCEEDF0B840F827243A0C92C4C2C40DE9D70912E.pygtex,
  F4B5E5BD04C3753C25BD70ECEFF02D8E840F827243A0C92C4C2C40DE9D70912E.pygtex,
  A5B1E83CD0273AEFDF9CCA2994B97C77840F827243A0C92C4C2C40DE9D70912E.pygtex,
  F7320CB2DE8EF4531DD9C33C17E56FB9840F827243A0C92C4C2C40DE9D70912E.pygtex,
  3367B86F441DFB7E77CFD22F418EFD8A840F827243A0C92C4C2C40DE9D70912E.pygtex,
  36ED50C2A02623B17B02F1BABCEEDF0B840F827243A0C92C4C2C40DE9D70912E.pygtex,
  E2F300D735E4101787E73943AF7C32A7840F827243A0C92C4C2C40DE9D70912E.pygtex,
  E2F300D735E4101787E73943AF7C32A7840F827243A0C92C4C2C40DE9D70912E.pygtex,
  F4F56DA8DC76FAFA3A225838ED5A3CDE840F827243A0C92C4C2C40DE9D70912E.pygtex,
  E2F300D735E4101787E73943AF7C32A7840F827243A0C92C4C2C40DE9D70912E.pygtex,
  DCA0795C70DC00678DEE33265E6A3D14840F827243A0C92C4C2C40DE9D70912E.pygtex,
  A506185D7FDC2E0C73E7344B0095E5DC840F827243A0C92C4C2C40DE9D70912E.pygtex,
  5760A7D5B77379AAB772B0A5752FB9AA840F827243A0C92C4C2C40DE9D70912E.pygtex,
  608A75E7F41F73DE1EC1EE36359B8FEE840F827243A0C92C4C2C40DE9D70912E.pygtex,
  5760A7D5B77379AAB772B0A5752FB9AA840F827243A0C92C4C2C40DE9D70912E.pygtex,
  4451DE91410C5BA9FB320A31C7AC888F840F827243A0C92C4C2C40DE9D70912E.pygtex,
  048D771E24F1B91BDC8770EDEBFDDDD9840F827243A0C92C4C2C40DE9D70912E.pygtex,
  048D771E24F1B91BDC8770EDEBFDDDD9840F827243A0C92C4C2C40DE9D70912E.pygtex,
  102FC87303567F0281012AD1ECFD082A840F827243A0C92C4C2C40DE9D70912E.pygtex,
  3751FE54B793238AE7C09D28A39D45C5840F827243A0C92C4C2C40DE9D70912E.pygtex,
  5C52F99F8C3F9A8DA58825D7681319E7840F827243A0C92C4C2C40DE9D70912E.pygtex,
  878E08B0C9CF3710B9DC228122B07C7F840F827243A0C92C4C2C40DE9D70912E.pygtex,
  048D771E24F1B91BDC8770EDEBFDDDD9840F827243A0C92C4C2C40DE9D70912E.pygtex,
  3751FE54B793238AE7C09D28A39D45C5840F827243A0C92C4C2C40DE9D70912E.pygtex,
  048D771E24F1B91BDC8770EDEBFDDDD9840F827243A0C92C4C2C40DE9D70912E.pygtex,
  C768D8D992C2E5C40894D6D8BD48238A840F827243A0C92C4C2C40DE9D70912E.pygtex,
  048D771E24F1B91BDC8770EDEBFDDDD9840F827243A0C92C4C2C40DE9D70912E.pygtex,
  5538D46687716088CF9142C5BFC58B45840F827243A0C92C4C2C40DE9D70912E.pygtex,
  286755FAD04869CA523320ACCE0DC6A4840F827243A0C92C4C2C40DE9D70912E.pygtex,
  0B2FA21B21B28CD45F568AD1D57C8475840F827243A0C92C4C2C40DE9D70912E.pygtex,
  286755FAD04869CA523320ACCE0DC6A4840F827243A0C92C4C2C40DE9D70912E.pygtex,
  9155DC4A04253D8DE53256DC37DE822D840F827243A0C92C4C2C40DE9D70912E.pygtex,
  286755FAD04869CA523320ACCE0DC6A4840F827243A0C92C4C2C40DE9D70912E.pygtex,
  BF11A6A73ACA64D7B9748F20F7A48DDD840F827243A0C92C4C2C40DE9D70912E.pygtex,
  286755FAD04869CA523320ACCE0DC6A4840F827243A0C92C4C2C40DE9D70912E.pygtex,
  B029EFD99A39D9D823E41B7A606D69DF840F827243A0C92C4C2C40DE9D70912E.pygtex,
  109CFFC115591E570B773B66902EE12F840F827243A0C92C4C2C40DE9D70912E.pygtex,
  3B9D7655731C709F0D11BD22406C6664840F827243A0C92C4C2C40DE9D70912E.pygtex,
  96E795B368AFABDF0565DE24A304CC0A840F827243A0C92C4C2C40DE9D70912E.pygtex,
  8B0E44CEB3CA2438595A61D85DBA9D50840F827243A0C92C4C2C40DE9D70912E.pygtex,
  C392AC1D32E54256772A7CFAE1124786840F827243A0C92C4C2C40DE9D70912E.pygtex,
  96E795B368AFABDF0565DE24A304CC0A840F827243A0C92C4C2C40DE9D70912E.pygtex,
  DD27B8147106C4CBF6E39774C654DE66840F827243A0C92C4C2C40DE9D70912E.pygtex,
  B2C2DF5794610966368BFA9D6D05C84C840F827243A0C92C4C2C40DE9D70912E.pygtex,
  5760A7D5B77379AAB772B0A5752FB9AA840F827243A0C92C4C2C40DE9D70912E.pygtex,
  34DBF221DD8A11D3CCC7C102F722CB43840F827243A0C92C4C2C40DE9D70912E.pygtex,
  EF6244E120D358EAD660802EDE1869E4840F827243A0C92C4C2C40DE9D70912E.pygtex,
  EF6244E120D358EAD660802EDE1869E4840F827243A0C92C4C2C40DE9D70912E.pygtex,
  4451DE91410C5BA9FB320A31C7AC888F840F827243A0C92C4C2C40DE9D70912E.pygtex,
  E7DCABCC6739621DE82E00211BC8B62E840F827243A0C92C4C2C40DE9D70912E.pygtex,
  102FC87303567F0281012AD1ECFD082A840F827243A0C92C4C2C40DE9D70912E.pygtex,
  5538D46687716088CF9142C5BFC58B45840F827243A0C92C4C2C40DE9D70912E.pygtex,
  102FC87303567F0281012AD1ECFD082A840F827243A0C92C4C2C40DE9D70912E.pygtex,
  B00C09BA7DE1B33615CF2750588FDD14840F827243A0C92C4C2C40DE9D70912E.pygtex,
  102FC87303567F0281012AD1ECFD082A840F827243A0C92C4C2C40DE9D70912E.pygtex,
  286755FAD04869CA523320ACCE0DC6A4840F827243A0C92C4C2C40DE9D70912E.pygtex,
  A5019754A37CD787315435AD918B726C840F827243A0C92C4C2C40DE9D70912E.pygtex,
  9155DC4A04253D8DE53256DC37DE822D840F827243A0C92C4C2C40DE9D70912E.pygtex,
  286755FAD04869CA523320ACCE0DC6A4840F827243A0C92C4C2C40DE9D70912E.pygtex,
  A5019754A37CD787315435AD918B726C840F827243A0C92C4C2C40DE9D70912E.pygtex,
  286755FAD04869CA523320ACCE0DC6A4840F827243A0C92C4C2C40DE9D70912E.pygtex,
  BF11A6A73ACA64D7B9748F20F7A48DDD840F827243A0C92C4C2C40DE9D70912E.pygtex,
  286755FAD04869CA523320ACCE0DC6A4840F827243A0C92C4C2C40DE9D70912E.pygtex,
  2A69674D30C9EE59E911EE99C4372381840F827243A0C92C4C2C40DE9D70912E.pygtex,
  E63C680DD45B198C71A9B146BD45E41E840F827243A0C92C4C2C40DE9D70912E.pygtex,
  DD27B8147106C4CBF6E39774C654DE66840F827243A0C92C4C2C40DE9D70912E.pygtex,
  F6F2EBED13D8CF7DF6F0830FB449B3FC840F827243A0C92C4C2C40DE9D70912E.pygtex,
  659BE1B4D38F2559EAD2F3C79233ED88840F827243A0C92C4C2C40DE9D70912E.pygtex,
  45B758A4F518F3FF31363696132F5F5A840F827243A0C92C4C2C40DE9D70912E.pygtex,
  269EB77B41B74A0DDA1E98D8C4CCFD9D840F827243A0C92C4C2C40DE9D70912E.pygtex,
  4A9EAF7B4EBF466FEA7BE7F896CACECF840F827243A0C92C4C2C40DE9D70912E.pygtex,
  713E8EC4ED8FFD469CA7AA909675FCD1840F827243A0C92C4C2C40DE9D70912E.pygtex,
  A8F1320A76A6C8FE9957530083769C43840F827243A0C92C4C2C40DE9D70912E.pygtex,
  7A6E0B6F5E9F4F049245CB1675F405B4840F827243A0C92C4C2C40DE9D70912E.pygtex,
  8DCCB27614A19849E98B0EDDBBD016B1840F827243A0C92C4C2C40DE9D70912E.pygtex,
  F030BDAF8A3F849E70E3A24F7CF75B31840F827243A0C92C4C2C40DE9D70912E.pygtex,
  D2C8319822B1C83ECE682460DD246241840F827243A0C92C4C2C40DE9D70912E.pygtex,
  269EB77B41B74A0DDA1E98D8C4CCFD9D840F827243A0C92C4C2C40DE9D70912E.pygtex,
  659BE1B4D38F2559EAD2F3C79233ED88840F827243A0C92C4C2C40DE9D70912E.pygtex,
  75F7C4BAD91CEA6909922CD29D2DF978840F827243A0C92C4C2C40DE9D70912E.pygtex,
  143E7AA8CD5A1F11BC1137D8FE49BCDF840F827243A0C92C4C2C40DE9D70912E.pygtex,
  9804048DB7E16D9C9692CC6F380A09BD840F827243A0C92C4C2C40DE9D70912E.pygtex,
  877DD7166BC8B54BD7A486C5EADBFA07840F827243A0C92C4C2C40DE9D70912E.pygtex,
  102892CD02E937ECE4B7053F9FE64FC3840F827243A0C92C4C2C40DE9D70912E.pygtex,
  129FF6856C7BB6B3D407DD167C872CBD840F827243A0C92C4C2C40DE9D70912E.pygtex,
  877DD7166BC8B54BD7A486C5EADBFA07840F827243A0C92C4C2C40DE9D70912E.pygtex,
  143E7AA8CD5A1F11BC1137D8FE49BCDF840F827243A0C92C4C2C40DE9D70912E.pygtex,
  129FF6856C7BB6B3D407DD167C872CBD840F827243A0C92C4C2C40DE9D70912E.pygtex,
  129FF6856C7BB6B3D407DD167C872CBD840F827243A0C92C4C2C40DE9D70912E.pygtex,
  3371D7AA50673B14D9C2A59D58335D91840F827243A0C92C4C2C40DE9D70912E.pygtex,
  C746792827CADB114165C080A7FF906C840F827243A0C92C4C2C40DE9D70912E.pygtex,
  F136803AB9C241079BA0CC1B5D02EE77840F827243A0C92C4C2C40DE9D70912E.pygtex,
  3371D7AA50673B14D9C2A59D58335D91840F827243A0C92C4C2C40DE9D70912E.pygtex,
  3371D7AA50673B14D9C2A59D58335D91840F827243A0C92C4C2C40DE9D70912E.pygtex,
  EF6244E120D358EAD660802EDE1869E4840F827243A0C92C4C2C40DE9D70912E.pygtex,
  9804048DB7E16D9C9692CC6F380A09BD840F827243A0C92C4C2C40DE9D70912E.pygtex,
  B89179546130A6DCA9FA731FB772AF39840F827243A0C92C4C2C40DE9D70912E.pygtex,
  7B7F1553656E423D5B1C40497FE13164840F827243A0C92C4C2C40DE9D70912E.pygtex,
  877DD7166BC8B54BD7A486C5EADBFA07840F827243A0C92C4C2C40DE9D70912E.pygtex,
  ED7EF8130E72D06D20FF949ACB2FD224840F827243A0C92C4C2C40DE9D70912E.pygtex,
  BF26A7A718DB16501B2A257E50AB34A9840F827243A0C92C4C2C40DE9D70912E.pygtex,
  A86E7A3BFC5E543EE58C558BFD1ED035840F827243A0C92C4C2C40DE9D70912E.pygtex,
  4BDF5A2CB8AE1F73D039F215CD565701840F827243A0C92C4C2C40DE9D70912E.pygtex,
  B9B9406A73D46F30855CB44E8E011DA8840F827243A0C92C4C2C40DE9D70912E.pygtex,
  BF26A7A718DB16501B2A257E50AB34A9840F827243A0C92C4C2C40DE9D70912E.pygtex,
  4BDF5A2CB8AE1F73D039F215CD565701840F827243A0C92C4C2C40DE9D70912E.pygtex,
  4BDF5A2CB8AE1F73D039F215CD565701840F827243A0C92C4C2C40DE9D70912E.pygtex,
  F46CC4D2A88FFB140997D3D7C5A415D7840F827243A0C92C4C2C40DE9D70912E.pygtex,
  C9D368371CED507EBE63BD9A39403366840F827243A0C92C4C2C40DE9D70912E.pygtex,
  BF26A7A718DB16501B2A257E50AB34A9840F827243A0C92C4C2C40DE9D70912E.pygtex,
  A86E7A3BFC5E543EE58C558BFD1ED035840F827243A0C92C4C2C40DE9D70912E.pygtex,
  F46CC4D2A88FFB140997D3D7C5A415D7840F827243A0C92C4C2C40DE9D70912E.pygtex,
  F46CC4D2A88FFB140997D3D7C5A415D7840F827243A0C92C4C2C40DE9D70912E.pygtex,
  C16B68AFCC999D384CA26BD41D3245F5840F827243A0C92C4C2C40DE9D70912E.pygtex,
  9931549032FBD75F58F006ED3AA66E07840F827243A0C92C4C2C40DE9D70912E.pygtex,
  FA97E2A0575FED623E49CD2C61A3170B840F827243A0C92C4C2C40DE9D70912E.pygtex,
  C16B68AFCC999D384CA26BD41D3245F5840F827243A0C92C4C2C40DE9D70912E.pygtex,
  C16B68AFCC999D384CA26BD41D3245F5840F827243A0C92C4C2C40DE9D70912E.pygtex,
  9FE74A8EDDB968189EA0F627934BF29E840F827243A0C92C4C2C40DE9D70912E.pygtex,
  0A718E881235771E159E8600ECE7023F840F827243A0C92C4C2C40DE9D70912E.pygtex,
  715C08EF2A87560B28A70A08B06C4B29840F827243A0C92C4C2C40DE9D70912E.pygtex,
  B21C228E5EAAC074CE350076A54998E3840F827243A0C92C4C2C40DE9D70912E.pygtex,
  4E9B00810BABCA55F7C0BABAFC2556B7840F827243A0C92C4C2C40DE9D70912E.pygtex,
  4E9B00810BABCA55F7C0BABAFC2556B7840F827243A0C92C4C2C40DE9D70912E.pygtex,
  4E9B00810BABCA55F7C0BABAFC2556B7840F827243A0C92C4C2C40DE9D70912E.pygtex,
  4E9B00810BABCA55F7C0BABAFC2556B7840F827243A0C92C4C2C40DE9D70912E.pygtex}
