\relax 
\providecommand\hyper@newdestlabel[2]{}
\citation{chang_keisler_2012}
\@writefile{toc}{\contentsline {chapter}{\numberline {4}METODOLOGIA}{45}{chapter.4}}
\@writefile{lof}{\addvspace {10\p@ }}
\@writefile{lot}{\addvspace {10\p@ }}
\newlabel{chapter:cap4}{{4}{45}{METODOLOGIA}{chapter.4}{}}
\@writefile{toc}{\contentsline {section}{\numberline {4.1}Modelagem do Corinda}{45}{section.4.1}}
\@writefile{toc}{\contentsline {subsection}{\numberline {4.1.1}Modelo Elementar e Modelo Composto}{45}{subsection.4.1.1}}
\@writefile{brf}{\backcite{chang_keisler_2012}{{45}{4.1.1}{subsection.4.1.1}}}
\newlabel{eq30}{{4.11}{47}{Modelo Elementar e Modelo Composto}{equation.4.1.11}{}}
\@writefile{toc}{\contentsline {subsection}{\numberline {4.1.2}\textit  {Token}}{47}{subsection.4.1.2}}
\@writefile{toc}{\contentsline {subsection}{\numberline {4.1.3}Modelo Cr\'{i}tico}{47}{subsection.4.1.3}}
\@writefile{toc}{\contentsline {subsection}{\numberline {4.1.4}Frequ\^{e}ncia Relativa}{48}{subsection.4.1.4}}
\@writefile{toc}{\contentsline {subsection}{\numberline {4.1.5}Entropia de Modelo}{48}{subsection.4.1.5}}
\@writefile{toc}{\contentsline {section}{\numberline {4.2}Corinda}{48}{section.4.2}}
\@writefile{toc}{\contentsline {section}{\numberline {4.3}Pacote Modelo Elementar}{50}{section.4.3}}
\@writefile{toc}{\contentsline {subsection}{\numberline {4.3.1}M\'{e}todo elementary.Model.UpdateEntropy()}{50}{subsection.4.3.1}}
\@writefile{toc}{\contentsline {subsection}{\numberline {4.3.2}M\'{e}todo elementary.Model.UpdateTokenFreq()}{50}{subsection.4.3.2}}
\@writefile{toc}{\contentsline {subsection}{\numberline {4.3.3}M\'{e}todo elementary.Model.SortedTokens()}{51}{subsection.4.3.3}}
\@writefile{toc}{\contentsline {section}{\numberline {4.4}Pacote Modelo Composto}{51}{section.4.4}}
\@writefile{toc}{\contentsline {subsection}{\numberline {4.4.1}M\'{e}todo composite.Model.UpdateProb()}{51}{subsection.4.4.1}}
\@writefile{toc}{\contentsline {subsection}{\numberline {4.4.2}M\'{e}todo composite.Model.UpdateFreq()}{51}{subsection.4.4.2}}
\@writefile{toc}{\contentsline {subsection}{\numberline {4.4.3}M\'{e}todo composite.Model.UpdateEntropy()}{52}{subsection.4.4.3}}
\@writefile{toc}{\contentsline {subsection}{\numberline {4.4.4}M\'{e}todo composite.Model.recursive()}{52}{subsection.4.4.4}}
\@writefile{toc}{\contentsline {subsection}{\numberline {4.4.5}M\'{e}todo composite.Model.Guess()}{52}{subsection.4.4.5}}
\@writefile{toc}{\contentsline {section}{\numberline {4.5}Pacote de Treinamento}{52}{section.4.5}}
\@writefile{toc}{\contentsline {subsection}{\numberline {4.5.1}Gorrotina train.Train.generator()}{53}{subsection.4.5.1}}
\@writefile{toc}{\contentsline {subsection}{\numberline {4.5.2}Gorrotina train.Train.batchAnalyzer()}{53}{subsection.4.5.2}}
\@writefile{toc}{\contentsline {subsection}{\numberline {4.5.3}Gorrotina train.Train.mapsMerger()}{53}{subsection.4.5.3}}
\@writefile{toc}{\contentsline {subsection}{\numberline {4.5.4}Gorrotina train.Train.mapsSaver()}{54}{subsection.4.5.4}}
\@writefile{toc}{\contentsline {subsection}{\numberline {4.5.5}Fluxograma do Pacote de Treinamento}{54}{subsection.4.5.5}}
\@writefile{lof}{\contentsline {figure}{\numberline {4.1}{\ignorespaces Fluxograma do Processo de Treinamento.\relax }}{55}{figure.caption.7}}
\newlabel{fig:train1}{{4.1}{55}{Fluxograma do Processo de Treinamento.\relax }{figure.caption.7}{}}
\@writefile{toc}{\contentsline {section}{\numberline {4.6}Pacote de Quebra de Senhas}{55}{section.4.6}}
\@writefile{lof}{\contentsline {figure}{\numberline {4.2}{\ignorespaces Legendas do Fluxograma do Processo de Treinamento.\relax }}{56}{figure.caption.8}}
\newlabel{fig:trainl}{{4.2}{56}{Legendas do Fluxograma do Processo de Treinamento.\relax }{figure.caption.8}{}}
\@writefile{toc}{\contentsline {subsection}{\numberline {4.6.1}Gorrotina de gera\c {c}\~{a}o de palpites}{56}{subsection.4.6.1}}
\newlabel{nguesses}{{4.21}{57}{Gorrotina de gera\c {c}\~{a}o de palpites}{equation.4.6.21}{}}
\@writefile{toc}{\contentsline {subsection}{\numberline {4.6.2}Gorrotina crack.Crack.guessLoop()}{57}{subsection.4.6.2}}
\@writefile{toc}{\contentsline {subsection}{\numberline {4.6.3}Gorrotina composite.Model.digest()}{57}{subsection.4.6.3}}
\@writefile{toc}{\contentsline {subsection}{\numberline {4.6.4}Gorrotina crack.Crack.searcher()}{58}{subsection.4.6.4}}
\@writefile{toc}{\contentsline {subsection}{\numberline {4.6.5}Gorrotina crack.Crack.saver()}{58}{subsection.4.6.5}}
\@writefile{toc}{\contentsline {subsection}{\numberline {4.6.6}Gorrotina crack.Crack.monitor()}{58}{subsection.4.6.6}}
\@writefile{toc}{\contentsline {subsection}{\numberline {4.6.7}Gorrotina crack.Crack.reporter()}{58}{subsection.4.6.7}}
\@writefile{toc}{\contentsline {subsection}{\numberline {4.6.8}Fluxograma do Pacote de Quebra de Senhas}{58}{subsection.4.6.8}}
\@writefile{toc}{\contentsline {section}{\numberline {4.7}Pacote da Interface de Comandos}{59}{section.4.7}}
\@writefile{toc}{\contentsline {subsection}{\numberline {4.7.1}Comando train}{59}{subsection.4.7.1}}
\@writefile{toc}{\contentsline {subsection}{\numberline {4.7.2}Comando crack}{59}{subsection.4.7.2}}
\@writefile{lof}{\contentsline {figure}{\numberline {4.3}{\ignorespaces Fluxograma do Processo de Quebra de Senhas.\relax }}{60}{figure.caption.9}}
\newlabel{fig:crackf}{{4.3}{60}{Fluxograma do Processo de Quebra de Senhas.\relax }{figure.caption.9}{}}
\@writefile{lof}{\contentsline {figure}{\numberline {4.4}{\ignorespaces Legendas do Fluxograma do Processo de Quebra de Senhas.\relax }}{61}{figure.caption.10}}
\newlabel{fig:crackl}{{4.4}{61}{Legendas do Fluxograma do Processo de Quebra de Senhas.\relax }{figure.caption.10}{}}
\@writefile{toc}{\contentsline {section}{\numberline {4.8}Experimentos e Valida\c {c}\~{a}o}{61}{section.4.8}}
\@writefile{toc}{\contentsline {subsection}{\numberline {4.8.1}Valida\c {c}\~{a}o do Corinda}{61}{subsection.4.8.1}}
\citation{dang_2013}
\citation{wang2005collision}
\citation{glabb2007}
\citation{sanadhya_sarkar}
\@writefile{lot}{\contentsline {table}{\numberline {4.1}{\ignorespaces Modelos elementares reconhecidos pelo \textit  {Passfault}.\relax }}{62}{table.caption.11}}
\newlabel{table1}{{4.1}{62}{Modelos elementares reconhecidos pelo \textit {Passfault}.\relax }{table.caption.11}{}}
\@writefile{brf}{\backcite{dang_2013}{{62}{4.8.1}{subsection.4.8.1}}}
\@writefile{brf}{\backcite{wang2005collision}{{62}{4.8.1}{subsection.4.8.1}}}
\@writefile{brf}{\backcite{glabb2007}{{63}{4.8.1}{subsection.4.8.1}}}
\@writefile{brf}{\backcite{sanadhya_sarkar}{{63}{4.8.1}{subsection.4.8.1}}}
\@writefile{toc}{\contentsline {section}{\numberline {4.9}Considera\c {c}\~{o}es}{63}{section.4.9}}
\@setckpt{./docs/CAP4T}{
\setcounter{page}{64}
\setcounter{equation}{22}
\setcounter{enumi}{5}
\setcounter{enumii}{0}
\setcounter{enumiii}{0}
\setcounter{enumiv}{0}
\setcounter{footnote}{0}
\setcounter{mpfootnote}{0}
\setcounter{part}{0}
\setcounter{chapter}{4}
\setcounter{section}{9}
\setcounter{subsection}{0}
\setcounter{subsubsection}{0}
\setcounter{paragraph}{0}
\setcounter{subparagraph}{0}
\setcounter{figure}{4}
\setcounter{table}{1}
\setcounter{float@type}{16}
\setcounter{LT@tables}{0}
\setcounter{LT@chunks}{0}
\setcounter{ContinuedFloat}{0}
\setcounter{parentequation}{0}
\setcounter{Item}{21}
\setcounter{Hfootnote}{0}
\setcounter{bookmark@seq@number}{80}
\setcounter{ABCIaux}{0}
\setcounter{ABCImax}{0}
\setcounter{KVtest}{1}
\setcounter{subfigure}{0}
\setcounter{subfigure@save}{0}
\setcounter{lofdepth}{1}
\setcounter{subtable}{0}
\setcounter{subtable@save}{0}
\setcounter{lotdepth}{1}
\setcounter{lstnumber}{4}
\setcounter{FancyVerbLine}{0}
\setcounter{linenumber}{1}
\setcounter{LN@truepage}{65}
\setcounter{FancyVerbLineBreakLast}{0}
\setcounter{minted@FancyVerbLineTemp}{0}
\setcounter{listing}{0}
\setcounter{@pps}{0}
\setcounter{@ppsavesec}{0}
\setcounter{@ppsaveapp}{0}
\setcounter{section@level}{1}
\setcounter{lstlisting}{0}
}
