\relax 
\providecommand\hyper@newdestlabel[2]{}
\citation{hutchens_2014}
\citation{cisar_cisar_2007}
\citation{shen_khanna_1997}
\citation{singh_yamini_2013}
\citation{jayamaha_2008}
\citation{zhang_koushanfar_2016}
\citation{florencio_herley_2007}
\citation{dellamico_michiardi_roudier_2010}
\citation{bishop_klein_1995}
\citation{gaw_felten_2006}
\citation{conger_lynley_2017}
\citation{menezes_2001}
\citation{stallings_2017}
\citation{menezes_2001}
\citation{swiderski_snyder_2009}
\citation{murakami_kasahara_saito_2010}
\citation{hashcat_2016}
\citation{munshi_2009}
\@writefile{toc}{\contentsline {chapter}{\numberline {1}INTRODU\c C\~AO}{25}{chapter.1}}
\@writefile{lof}{\addvspace {10\p@ }}
\@writefile{lot}{\addvspace {10\p@ }}
\newlabel{chapter:introducao}{{1}{25}{INTRODUÇÃO}{chapter.1}{}}
\@writefile{brf}{\backcite{hutchens_2014}{{25}{1}{chapter.1}}}
\@writefile{brf}{\backcite{cisar_cisar_2007}{{25}{1}{chapter.1}}}
\@writefile{brf}{\backcite{shen_khanna_1997, singh_yamini_2013, jayamaha_2008, zhang_koushanfar_2016}{{25}{1}{chapter.1}}}
\@writefile{brf}{\backcite{shen_khanna_1997, singh_yamini_2013, jayamaha_2008, zhang_koushanfar_2016}{{25}{1}{chapter.1}}}
\@writefile{brf}{\backcite{shen_khanna_1997, singh_yamini_2013, jayamaha_2008, zhang_koushanfar_2016}{{25}{1}{chapter.1}}}
\@writefile{brf}{\backcite{shen_khanna_1997, singh_yamini_2013, jayamaha_2008, zhang_koushanfar_2016}{{25}{1}{chapter.1}}}
\@writefile{brf}{\backcite{florencio_herley_2007, dellamico_michiardi_roudier_2010, bishop_klein_1995}{{25}{1}{chapter.1}}}
\@writefile{brf}{\backcite{florencio_herley_2007, dellamico_michiardi_roudier_2010, bishop_klein_1995}{{25}{1}{chapter.1}}}
\@writefile{brf}{\backcite{florencio_herley_2007, dellamico_michiardi_roudier_2010, bishop_klein_1995}{{25}{1}{chapter.1}}}
\@writefile{brf}{\backcite{gaw_felten_2006}{{25}{1}{chapter.1}}}
\@writefile{brf}{\backcite{conger_lynley_2017}{{25}{1}{chapter.1}}}
\@writefile{brf}{\backcite{menezes_2001, stallings_2017}{{25}{1}{chapter.1}}}
\@writefile{brf}{\backcite{menezes_2001, stallings_2017}{{25}{1}{chapter.1}}}
\@writefile{brf}{\backcite{menezes_2001}{{25}{1}{chapter.1}}}
\citation{weir_2009}
\citation{bishop_klein_1995}
\citation{wang_2016}
\citation{gosney_2016}
\citation{bishop_klein_1995}
\citation{castellucia}
\citation{shannon_2009}
\citation{wheeler2016zxcvbn}
\citation{burr}
\citation{burr2}
\citation{kelley2}
\citation{kelley1}
\@writefile{brf}{\backcite{swiderski_snyder_2009}{{26}{1}{chapter.1}}}
\@writefile{brf}{\backcite{murakami_kasahara_saito_2010, hashcat_2016}{{26}{1}{chapter.1}}}
\@writefile{brf}{\backcite{murakami_kasahara_saito_2010, hashcat_2016}{{26}{1}{chapter.1}}}
\@writefile{brf}{\backcite{munshi_2009}{{26}{1}{chapter.1}}}
\@writefile{brf}{\backcite{weir_2009, bishop_klein_1995, wang_2016}{{26}{1}{chapter.1}}}
\@writefile{brf}{\backcite{weir_2009, bishop_klein_1995, wang_2016}{{26}{1}{chapter.1}}}
\@writefile{brf}{\backcite{weir_2009, bishop_klein_1995, wang_2016}{{26}{1}{chapter.1}}}
\@writefile{brf}{\backcite{gosney_2016}{{26}{1}{chapter.1}}}
\@writefile{brf}{\backcite{bishop_klein_1995}{{26}{1}{chapter.1}}}
\@writefile{brf}{\backcite{castellucia}{{26}{1}{chapter.1}}}
\@writefile{brf}{\backcite{shannon_2009}{{26}{1}{chapter.1}}}
\@writefile{brf}{\backcite{wheeler2016zxcvbn}{{26}{1}{chapter.1}}}
\@writefile{brf}{\backcite{burr, burr2}{{26}{1}{chapter.1}}}
\@writefile{brf}{\backcite{burr, burr2}{{26}{1}{chapter.1}}}
\@writefile{brf}{\backcite{kelley2}{{26}{1}{chapter.1}}}
\@writefile{brf}{\backcite{kelley1}{{26}{1}{chapter.1}}}
\citation{sahin}
\citation{sahin}
\citation{rodrigues}
\citation{sahin}
\@writefile{brf}{\backcite{sahin}{{27}{1}{chapter.1}}}
\@writefile{brf}{\backcite{sahin}{{27}{1}{chapter.1}}}
\@writefile{brf}{\backcite{rodrigues}{{27}{1}{chapter.1}}}
\@writefile{brf}{\backcite{sahin}{{27}{1}{chapter.1}}}
\@setckpt{./docs/INTROT}{
\setcounter{page}{29}
\setcounter{equation}{0}
\setcounter{enumi}{0}
\setcounter{enumii}{0}
\setcounter{enumiii}{0}
\setcounter{enumiv}{0}
\setcounter{footnote}{0}
\setcounter{mpfootnote}{0}
\setcounter{part}{0}
\setcounter{chapter}{1}
\setcounter{section}{0}
\setcounter{subsection}{0}
\setcounter{subsubsection}{0}
\setcounter{paragraph}{0}
\setcounter{subparagraph}{0}
\setcounter{figure}{0}
\setcounter{table}{0}
\setcounter{float@type}{16}
\setcounter{LT@tables}{0}
\setcounter{LT@chunks}{0}
\setcounter{ContinuedFloat}{0}
\setcounter{parentequation}{0}
\setcounter{Item}{0}
\setcounter{Hfootnote}{0}
\setcounter{bookmark@seq@number}{15}
\setcounter{ABCIaux}{0}
\setcounter{ABCImax}{0}
\setcounter{KVtest}{1}
\setcounter{subfigure}{0}
\setcounter{subfigure@save}{0}
\setcounter{lofdepth}{1}
\setcounter{subtable}{0}
\setcounter{subtable@save}{0}
\setcounter{lotdepth}{1}
\setcounter{lstnumber}{1}
\setcounter{FancyVerbLine}{0}
\setcounter{linenumber}{1}
\setcounter{LN@truepage}{30}
\setcounter{FancyVerbLineBreakLast}{0}
\setcounter{minted@FancyVerbLineTemp}{0}
\setcounter{listing}{0}
\setcounter{@pps}{0}
\setcounter{@ppsavesec}{0}
\setcounter{@ppsaveapp}{0}
\setcounter{section@level}{0}
\setcounter{lstlisting}{0}
}
